Data viz request
…
year_rainfall_sum <- my_table %>%
  group_by(Year) %>%
  summarise(Rainfall = sum(Rainfall, na.rm = T))
year_rainfall_sum

## # A tibble: 26 x 2
##     Year Rainfall
##    <int>    <dbl>
##  1  1993    1088.
##  2  1994    2089 
##  3  1995    2204.
##  4  1996    2629.
##  5  1997    2316.
##  6  1998    2271.
##  7  1999    3301.
##  8  2000    3716.
##  9  2001    2042.
## 10  2002    1154.
## # ... with 16 more rows
…
